…
### The modified plot from Milestone 1 shows the range of flow values for minimum and maximum extremes for each season.

``` r
# From Milestone 2: Create a new column for each season
flow_sample_Seasons <- flow_sample %>% 
   mutate(season = case_when(month < 3 ~ "winter",
                                 month < 6 ~ "spring",
                                 month < 9 ~ "summer",
                                 month < 12 ~ "autumn",
                                 TRUE ~ "winter"))
print(flow_sample_Seasons)
```

    ## # A tibble: 218 x 8
    ##    station_id  year extreme_type month   day  flow sym   season
    ##    <chr>      <dbl> <chr>        <dbl> <dbl> <dbl> <chr> <chr> 
    ##  1 05BB001     1909 maximum          7     7   314 <NA>  summer
    ##  2 05BB001     1910 maximum          6    12   230 <NA>  summer
    ##  3 05BB001     1911 maximum          6    14   264 <NA>  summer
    ##  4 05BB001     1912 maximum          8    25   174 <NA>  summer
    ##  5 05BB001     1913 maximum          6    11   232 <NA>  summer
    ##  6 05BB001     1914 maximum          6    18   214 <NA>  summer
    ##  7 05BB001     1915 maximum          6    27   236 <NA>  summer
    ##  8 05BB001     1916 maximum          6    20   309 <NA>  summer
    ##  9 05BB001     1917 maximum          6    17   174 <NA>  summer
    ## 10 05BB001     1918 maximum          6    15   345 <NA>  summer
    ## # ... with 208 more rows
…
## Task 2: Produce a new plot that groups some factor levels together into an “other” category

##### Group all seasons except spring into one category called “other” to differentiate the difference between the spring flow values and the flow values from the other seasons.

##### Reasoning: I chose this grouping because Spring is the only season with both miniumum and maximum values, therefore it is interesting to see how the spring data compares with the data from the other seasons in each extreme type. Therefore, I categorized Summer, Winter, and Autumn into a category called “other”, and left Spring available for comparison.

``` r
# Collapse the data using fct_collapse to put all categories except spring into one category
Spring <- flow_sample_Seasons %>% 
  mutate(season = fct_collapse(season, other = c("autumn", "summer", "winter")))
print(Spring)
```

    ## # A tibble: 218 x 8
    ##    station_id  year extreme_type month   day  flow sym   season
    ##    <chr>      <dbl> <chr>        <dbl> <dbl> <dbl> <chr> <fct> 
    ##  1 05BB001     1909 maximum          7     7   314 <NA>  other 
    ##  2 05BB001     1910 maximum          6    12   230 <NA>  other 
    ##  3 05BB001     1911 maximum          6    14   264 <NA>  other 
    ##  4 05BB001     1912 maximum          8    25   174 <NA>  other 
    ##  5 05BB001     1913 maximum          6    11   232 <NA>  other 
    ##  6 05BB001     1914 maximum          6    18   214 <NA>  other 
    ##  7 05BB001     1915 maximum          6    27   236 <NA>  other 
    ##  8 05BB001     1916 maximum          6    20   309 <NA>  other 
    ##  9 05BB001     1917 maximum          6    17   174 <NA>  other 
    ## 10 05BB001     1918 maximum          6    15   345 <NA>  other 
    ## # ... with 208 more rows
…
    ## # A tibble: 4 x 5
    ##   term         estimate std.error statistic  p.value
    ##   <chr>           <dbl>     <dbl>     <dbl>    <dbl>
    ## 1 (Intercept)     6.11       27.8   0.220   8.26e- 1
    ## 2 seasonspring   49.4        28.9   1.71    8.91e- 2
    ## 3 seasonsummer  209.         28.5   7.34    4.62e-12
    ## 4 seasonwinter    0.104      29.0   0.00358 9.97e- 1

``` r
# Use broom package to output a tibble for fitted values and residuals
augment(model)
```

    ## # A tibble: 216 x 9
    ##    .rownames  flow season .fitted .resid   .hat .sigma    .cooksd .std.resid
    ##    <chr>     <dbl> <chr>    <dbl>  <dbl>  <dbl>  <dbl>      <dbl>      <dbl>
    ##  1 1           314 summer    215.  98.7  0.0108   61.9 0.00694        1.60  
    ##  2 2           230 summer    215.  14.7  0.0108   62.2 0.000155       0.238 
    ##  3 3           264 summer    215.  48.7  0.0108   62.2 0.00169        0.789 
    ##  4 4           174 summer    215. -41.3  0.0108   62.2 0.00121       -0.668 
    ##  5 5           232 summer    215.  16.7  0.0108   62.2 0.000199       0.271 
    ##  6 6           214 summer    215.  -1.27 0.0108   62.3 0.00000115    -0.0205
    ##  7 7           236 summer    215.  20.7  0.0108   62.2 0.000306       0.336 
    ##  8 8           309 summer    215.  93.7  0.0108   61.9 0.00626        1.52  
    ##  9 9           174 summer    215. -41.3  0.0108   62.2 0.00121       -0.668 
    ## 10 10          345 summer    215. 130.   0.0108   61.6 0.0120         2.10  
    ## # ... with 206 more rows
…
