…
*1. How does the range of maximum flow since before 1960 compare to the
range of flow from 1960 to present day?*

#### Summarizing

##### Create a new column to seperate data for years prior to 1960 and since 1960 for maximum extremes.

``` r
flow_sample_PeriodMax <- flow_sample %>% 
  filter(extreme_type == 'maximum') %>%  
  mutate(Period = case_when(year > 1959 ~ "Since_1960", TRUE ~ "Before_1960"))
print(flow_sample_PeriodMax)
```

    ## # A tibble: 109 x 8
    ##    station_id  year extreme_type month   day  flow sym   Period     
    ##    <chr>      <dbl> <chr>        <dbl> <dbl> <dbl> <chr> <chr>      
    ##  1 05BB001     1909 maximum          7     7   314 <NA>  Before_1960
    ##  2 05BB001     1910 maximum          6    12   230 <NA>  Before_1960
    ##  3 05BB001     1911 maximum          6    14   264 <NA>  Before_1960
    ##  4 05BB001     1912 maximum          8    25   174 <NA>  Before_1960
    ##  5 05BB001     1913 maximum          6    11   232 <NA>  Before_1960
    ##  6 05BB001     1914 maximum          6    18   214 <NA>  Before_1960
    ##  7 05BB001     1915 maximum          6    27   236 <NA>  Before_1960
    ##  8 05BB001     1916 maximum          6    20   309 <NA>  Before_1960
    ##  9 05BB001     1917 maximum          6    17   174 <NA>  Before_1960
    ## 10 05BB001     1918 maximum          6    15   345 <NA>  Before_1960
    ## # ... with 99 more rows
…
#### Summarizing

##### Compute the number of observations for each extreme type by season.

###### Seasons align with the months for the northern hemisphere, where winter months are December - January, and Summer months are June - August.

``` r
# Create new column for each season
flow_sample_Seasons <- flow_sample %>% 
   mutate(season = case_when(month < 3 ~ "winter", month < 6 ~ "spring", month < 9 ~ "summer", TRUE ~ "autumn"))
print(flow_sample_Seasons)
```

    ## # A tibble: 218 x 8
    ##    station_id  year extreme_type month   day  flow sym   season
    ##    <chr>      <dbl> <chr>        <dbl> <dbl> <dbl> <chr> <chr> 
    ##  1 05BB001     1909 maximum          7     7   314 <NA>  summer
    ##  2 05BB001     1910 maximum          6    12   230 <NA>  summer
    ##  3 05BB001     1911 maximum          6    14   264 <NA>  summer
    ##  4 05BB001     1912 maximum          8    25   174 <NA>  summer
    ##  5 05BB001     1913 maximum          6    11   232 <NA>  summer
    ##  6 05BB001     1914 maximum          6    18   214 <NA>  summer
    ##  7 05BB001     1915 maximum          6    27   236 <NA>  summer
    ##  8 05BB001     1916 maximum          6    20   309 <NA>  summer
    ##  9 05BB001     1917 maximum          6    17   174 <NA>  summer
    ## 10 05BB001     1918 maximum          6    15   345 <NA>  summer
    ## # ... with 208 more rows
…
##### Make a graph where it makes sense to customize the alpha transparency.

###### The density graph is useful for describing the patterns in maximum flow over the season, as you are able to observe the distribution of flow in each season. By observing the graph, the spring months seem to have a higher density of flow between a narrower range of flow measurements, while the summer months seem to have a wider range of flow values.

###### The alpha transparency in this graph is helpful to when comparing the density of flow patterns over the summer and spring seasons, where there are maximum flow values. Without the alpha transparency, it would be difficult to see the overlap and curavture of the graph for each season.

``` r
#Filter by Maximum only, since we only want to know how maximum flow changes over the seasons
flow_sample_SeasonsMax <- flow_sample_Seasons %>% 
  filter(extreme_type == 'maximum')
print(flow_sample_SeasonsMax)
```

    ## # A tibble: 109 x 8
    ##    station_id  year extreme_type month   day  flow sym   season
    ##    <chr>      <dbl> <chr>        <dbl> <dbl> <dbl> <chr> <chr> 
    ##  1 05BB001     1909 maximum          7     7   314 <NA>  summer
    ##  2 05BB001     1910 maximum          6    12   230 <NA>  summer
    ##  3 05BB001     1911 maximum          6    14   264 <NA>  summer
    ##  4 05BB001     1912 maximum          8    25   174 <NA>  summer
    ##  5 05BB001     1913 maximum          6    11   232 <NA>  summer
    ##  6 05BB001     1914 maximum          6    18   214 <NA>  summer
    ##  7 05BB001     1915 maximum          6    27   236 <NA>  summer
    ##  8 05BB001     1916 maximum          6    20   309 <NA>  summer
    ##  9 05BB001     1917 maximum          6    17   174 <NA>  summer
    ## 10 05BB001     1918 maximum          6    15   345 <NA>  summer
    ## # ... with 99 more rows
…
                            year > 1989 ~ "1990_1999",
                            year > 1979 ~ "1980_1989",
                            year > 1969 ~ "1970_1979",
                            year > 1959 ~ "1960_1969",
                            year > 1949 ~ "1950_1959",
                            year > 1939 ~ "1940_1949",
                            year > 1929 ~ "1930_1939",
                            year > 1919 ~ "1920_1929",
                            year > 1909 ~ "1910_1919",
                            year > 1899 ~ "1900_1909",
                            ))
print(flow_sample_decade)
```

    ## # A tibble: 109 x 9
    ##    station_id  year extreme_type month   day  flow sym   season decade   
    ##    <chr>      <dbl> <chr>        <dbl> <dbl> <dbl> <chr> <chr>  <chr>    
    ##  1 05BB001     1909 maximum          7     7   314 <NA>  summer 1900_1909
    ##  2 05BB001     1910 maximum          6    12   230 <NA>  summer 1910_1919
    ##  3 05BB001     1911 maximum          6    14   264 <NA>  summer 1910_1919
    ##  4 05BB001     1912 maximum          8    25   174 <NA>  summer 1910_1919
    ##  5 05BB001     1913 maximum          6    11   232 <NA>  summer 1910_1919
    ##  6 05BB001     1914 maximum          6    18   214 <NA>  summer 1910_1919
    ##  7 05BB001     1915 maximum          6    27   236 <NA>  summer 1910_1919
    ##  8 05BB001     1916 maximum          6    20   309 <NA>  summer 1910_1919
    ##  9 05BB001     1917 maximum          6    17   174 <NA>  summer 1910_1919
    ## 10 05BB001     1918 maximum          6    15   345 <NA>  summer 1910_1919
    ## # ... with 99 more rows
…
                            year > 1999 ~ "2000_2009",
                            year > 1989 ~ "1990_1999",
                            year > 1979 ~ "1980_1989",
                            year > 1969 ~ "1970_1979",
                            year > 1959 ~ "1960_1969",
                            year > 1949 ~ "1950_1959",
                            year > 1939 ~ "1940_1949",
                            year > 1929 ~ "1930_1939",
                            year > 1919 ~ "1920_1929",
                            year > 1909 ~ "1910_1919",
                            year > 1899 ~ "1900_1909"))
print(flow_sample_MDA3)
```

    ## # A tibble: 109 x 8
    ##    station_id  year extreme_type month   day  flow season decade   
    ##    <chr>      <dbl> <chr>        <dbl> <dbl> <dbl> <chr>  <chr>    
    ##  1 05BB001     1909 minimum         NA    NA NA    winter 1900_1909
    ##  2 05BB001     1910 minimum         NA    NA NA    winter 1910_1919
    ##  3 05BB001     1911 minimum          2    27  5.75 winter 1910_1919
    ##  4 05BB001     1912 minimum          3    14  5.8  spring 1910_1919
    ##  5 05BB001     1913 minimum          3    18  6.12 spring 1910_1919
    ##  6 05BB001     1914 minimum         11    17  7.16 autumn 1910_1919
    ##  7 05BB001     1915 minimum          1    27  6.94 winter 1910_1919
    ##  8 05BB001     1916 minimum          3     2  6.97 spring 1910_1919
    ##  9 05BB001     1917 minimum          2    23  6.06 winter 1910_1919
    ## 10 05BB001     1918 minimum          2    20  6.03 winter 1910_1919
    ## # ... with 99 more rows
