…
3.  Filter observations according to time, where we can look at recent
    data starting in 1960, and before 1960. Then plot the observations
    to see if flow has changed over the century. Filter for recent
    years, from 1960 till present

``` r
MaxSince_1960 <- flow_sample %>%
  filter(year > 1960, extreme_type == "maximum")
print(MaxSince_1960)
```

    ## # A tibble: 57 x 7
    ##    station_id  year extreme_type month   day  flow sym  
    ##    <chr>      <dbl> <chr>        <dbl> <dbl> <dbl> <chr>
    ##  1 05BB001     1961 maximum          6     7   266 <NA> 
    ##  2 05BB001     1962 maximum          6    26   184 <NA> 
    ##  3 05BB001     1963 maximum          6    19   183 <NA> 
    ##  4 05BB001     1964 maximum          6    14   246 <NA> 
    ##  5 05BB001     1965 maximum          6    19   289 <NA> 
    ##  6 05BB001     1966 maximum          6     1   225 <NA> 
    ##  7 05BB001     1967 maximum          6    22   275 <NA> 
    ##  8 05BB001     1968 maximum          6    27   191 <NA> 
    ##  9 05BB001     1969 maximum          6     6   203 <NA> 
    ## 10 05BB001     1970 maximum          6     5   155 <NA> 
    ## # ... with 47 more rows
…
Filter for historical years, since before 1960

``` r
MaxBefore_1960 <- flow_sample %>%
  filter(year < 1960, extreme_type == "maximum")
print(MaxBefore_1960)
```

    ## # A tibble: 51 x 7
    ##    station_id  year extreme_type month   day  flow sym  
    ##    <chr>      <dbl> <chr>        <dbl> <dbl> <dbl> <chr>
    ##  1 05BB001     1909 maximum          7     7   314 <NA> 
    ##  2 05BB001     1910 maximum          6    12   230 <NA> 
    ##  3 05BB001     1911 maximum          6    14   264 <NA> 
    ##  4 05BB001     1912 maximum          8    25   174 <NA> 
    ##  5 05BB001     1913 maximum          6    11   232 <NA> 
    ##  6 05BB001     1914 maximum          6    18   214 <NA> 
    ##  7 05BB001     1915 maximum          6    27   236 <NA> 
    ##  8 05BB001     1916 maximum          6    20   309 <NA> 
    ##  9 05BB001     1917 maximum          6    17   174 <NA> 
    ## 10 05BB001     1918 maximum          6    15   345 <NA> 
    ## # ... with 41 more rows
…
4.  Plot the flow in boxplots to see the distribution within minimum and
    maximum flows Filter by Maximum Flow

``` r
Max_only <- flow_sample %>%
  filter(extreme_type == "maximum")
print(Max_only)
```

    ## # A tibble: 109 x 7
    ##    station_id  year extreme_type month   day  flow sym  
    ##    <chr>      <dbl> <chr>        <dbl> <dbl> <dbl> <chr>
    ##  1 05BB001     1909 maximum          7     7   314 <NA> 
    ##  2 05BB001     1910 maximum          6    12   230 <NA> 
    ##  3 05BB001     1911 maximum          6    14   264 <NA> 
    ##  4 05BB001     1912 maximum          8    25   174 <NA> 
    ##  5 05BB001     1913 maximum          6    11   232 <NA> 
    ##  6 05BB001     1914 maximum          6    18   214 <NA> 
    ##  7 05BB001     1915 maximum          6    27   236 <NA> 
    ##  8 05BB001     1916 maximum          6    20   309 <NA> 
    ##  9 05BB001     1917 maximum          6    17   174 <NA> 
    ## 10 05BB001     1918 maximum          6    15   345 <NA> 
    ## # ... with 99 more rows
…
Filter by minimum flow

``` r
Min_only <- flow_sample %>%
  filter(extreme_type == "minimum")
print(Min_only)
```

    ## # A tibble: 109 x 7
    ##    station_id  year extreme_type month   day  flow sym  
    ##    <chr>      <dbl> <chr>        <dbl> <dbl> <dbl> <chr>
    ##  1 05BB001     1909 minimum         NA    NA NA    <NA> 
    ##  2 05BB001     1910 minimum         NA    NA NA    <NA> 
    ##  3 05BB001     1911 minimum          2    27  5.75 <NA> 
    ##  4 05BB001     1912 minimum          3    14  5.8  <NA> 
    ##  5 05BB001     1913 minimum          3    18  6.12 B    
    ##  6 05BB001     1914 minimum         11    17  7.16 <NA> 
    ##  7 05BB001     1915 minimum          1    27  6.94 <NA> 
    ##  8 05BB001     1916 minimum          3     2  6.97 B    
    ##  9 05BB001     1917 minimum          2    23  6.06 B    
    ## 10 05BB001     1918 minimum          2    20  6.03 B    
    ## # ... with 99 more rows
…
